module poc-webauthn

go 1.16

require (
	github.com/duo-labs/webauthn v0.0.0-20200714211715-1daaee874e43
	github.com/duo-labs/webauthn.io v0.0.0-20200929144140-c031a3e0f95d
	github.com/gorilla/mux v1.8.0
	github.com/spf13/cobra v1.1.3
)
